EESM6000C_LAB3/EESM6000C_LAB.sim/sim_1/behav/xsim/fir.vcd
$date
   Sun Mar 16 23:49:36 2025
$end
$version
  2020.2
$end
$timescale
  1ps
$end
$scope module fir_tb $end
$var wire 1 ! awready $end
$var wire 1 " wready $end
$var reg 1 # awvalid $end
$var reg 12 $ awaddr [11:0] $end
$var reg 1 % wvalid $end
$var reg 32 & wdata [31:0] $end
$var wire 1 ' arready $end
$var reg 1 ( rready $end
$var reg 1 ) arvalid $end
$var reg 12 * araddr [11:0] $end
$var wire 1 + rvalid $end
$var wire 32 , rdata [31:0] $end
$var reg 1 - ss_tvalid $end
$var reg 32 . ss_tdata [31:0] $end
$var reg 1 / ss_tlast $end
$var wire 1 0 ss_tready $end
$var reg 1 1 sm_tready $end
$var wire 1 2 sm_tvalid $end
$var wire 32 3 sm_tdata [31:0] $end
$var wire 1 4 sm_tlast $end
$var reg 1 5 axis_clk $end
$var reg 1 6 axis_rst_n $end
$var wire 4 7 tap_WE [3:0] $end
$var wire 1 8 tap_EN $end
$var wire 32 9 tap_Di [31:0] $end
$var wire 12 : tap_A [11:0] $end
$var wire 32 ; tap_Do [31:0] $end
$var wire 4 < data_WE [3:0] $end
$var wire 1 = data_EN $end
$var wire 32 > data_Di [31:0] $end
$var wire 12 ? data_A [11:0] $end
$var wire 32 @ data_Do [31:0] $end
$var reg 32 A data_length [31:0] $end
$var integer 32 B Din $end
$var integer 32 C golden $end
$var integer 32 D input_data $end
$var integer 32 E golden_data $end
$var integer 32 F m $end
$var integer 32 G i $end
$var integer 32 H k $end
$var reg 1 I error $end
$var reg 1 J status_error $end
$var integer 32 K timeout $end
$var reg 1 L error_coef $end
$var parameter 32 M pADDR_WIDTH [31:0] $end
$var parameter 32 N pDATA_WIDTH [31:0] $end
$var parameter 32 O Tape_Num [31:0] $end
$var parameter 32 P Data_Num [31:0] $end
$scope module fir_DUT $end
$var wire 1 ! awready $end
$var wire 1 Q awvalid $end
$var wire 12 R awaddr [11:0] $end
$var wire 1 " wready $end
$var wire 1 S wvalid $end
$var wire 32 T wdata [31:0] $end
$var wire 1 ' arready $end
$var wire 1 U arvalid $end
$var wire 12 V araddr [11:0] $end
$var wire 1 W rready $end
$var wire 1 + rvalid $end
$var wire 32 , rdata [31:0] $end
$var wire 1 X ss_tvalid $end
$var wire 32 Y ss_tdata [31:0] $end
$var wire 1 Z ss_tlast $end
$var wire 1 0 ss_tready $end
$var wire 1 [ sm_tready $end
$var wire 1 2 sm_tvalid $end
$var wire 32 3 sm_tdata [31:0] $end
$var wire 1 4 sm_tlast $end
$var wire 4 7 tap_WE [3:0] $end
$var wire 1 8 tap_EN $end
$var wire 32 9 tap_Di [31:0] $end
$var wire 12 : tap_A [11:0] $end
$var wire 32 ; tap_Do [31:0] $end
$var wire 4 < data_WE [3:0] $end
$var wire 1 = data_EN $end
$var wire 32 > data_Di [31:0] $end
$var wire 12 ? data_A [11:0] $end
$var wire 32 @ data_Do [31:0] $end
$var wire 1 \ axis_clk $end
$var wire 1 ] axis_rst_n $end
$var reg 32 ^ \genblk1.status  [31:0] $end
$var reg 4 _ \genblk1.data_WE_t  [3:0] $end
$var reg 1 ` \genblk1.data_EN_t  $end
$var reg 32 a \genblk1.data_Di_t  [31:0] $end
$var reg 12 b \genblk1.data_A_t  [11:0] $end
$var reg 4 c \genblk1.tap_WE_t  [3:0] $end
$var reg 1 d \genblk1.tap_EN_t  $end
$var reg 32 e \genblk1.tap_Di_t  [31:0] $end
$var reg 12 f \genblk1.tap_A_t  [11:0] $end
$var reg 1 g \genblk1.initial_flag  $end
$var reg 32 h \genblk1.initial_counter  [31:0] $end
$var reg 1 i \genblk1.system_ready  $end
$var reg 12 j \genblk1.ss_counter  [11:0] $end
$var reg 12 k \genblk1.ss_counter_data  [11:0] $end
$var reg 32 l \genblk1.y  [31:0] $end
$var reg 1 m \genblk1.ss_tready_t  $end
$var reg 1 n \genblk1.ss_late_sum  $end
$var reg 1 o \genblk1.start_received  $end
$var reg 1 p \genblk1.last_recevied  $end
$var reg 32 q \genblk1.sm_tdata_t  [31:0] $end
$var reg 1 r \genblk1.sm_tvalid_t  $end
$var reg 1 s \genblk1.sm_tlast_t  $end
$var reg 1 t \genblk1.awready_t  $end
$var reg 1 u \genblk1.wready_t  $end
$var reg 12 v \genblk1.r_temp_araddr  [11:0] $end
$var reg 12 w \genblk1.r_counter  [11:0] $end
$var reg 1 x \genblk1.arready_t  $end
$var reg 1 y \genblk1.rvalid_t  $end
$var reg 32 z \genblk1.rdata_t  [31:0] $end
$var reg 32 { \genblk1.data_length  [31:0] $end
$var reg 1 | \genblk1.ww_tap_unbind  $end
$var reg 12 } \genblk1.rr_counter  [11:0] $end
$var reg 12 ~ \genblk1.rr_temp_addres  [11:0] $end
$var parameter 32 !! pADDR_WIDTH [31:0] $end
$var parameter 32 "! pDATA_WIDTH [31:0] $end
$var parameter 32 #! Tape_Num [31:0] $end
$upscope $end
$scope module tap_RAM $end
$var wire 1 $! CLK $end
$var wire 4 7 WE [3:0] $end
$var wire 1 8 EN $end
$var wire 32 9 Di [31:0] $end
$var wire 32 ; Do [31:0] $end
$var wire 12 : A [11:0] $end
$var reg 12 %! r_A [11:0] $end
$var reg 32 &! Temp_D [31:0] $end
$upscope $end
$scope module data_RAM $end
$var wire 1 '! CLK $end
$var wire 4 < WE [3:0] $end
$var wire 1 = EN $end
$var wire 32 > Di [31:0] $end
$var wire 32 @ Do [31:0] $end
$var wire 12 ? A [11:0] $end
$var reg 12 (! r_A [11:0] $end
$var reg 32 )! Temp_D [31:0] $end
$upscope $end
$scope task config_write $end
$var reg 12 *! addr [11:0] $end
$var reg 32 +! data [31:0] $end
$upscope $end
$scope task config_read_check $end
$var reg 12 ,! addr [11:0] $end
$var reg 32 -! exp_data [31:0] $end
$var reg 32 .! mask [31:0] $end
$upscope $end
$scope task ss $end
$var reg 32 /! in1 [31:0] $end
$upscope $end
$scope task sm $end
$var reg 32 0! in2 [31:0] $end
$var reg 32 1! pcnt [31:0] $end
$upscope $end
$upscope $end
$enddefinitions $end
#0
$dumpvars
0!
b1100 !!
0"
b100000 "!
0#
b1011 #!
bx $
0$!
0%
bx %!
bx &
bx &!
0'
0'!
x(
bx (!
x)
bx )!
bx *
b10000 *!
0+
b1001011000 +!
b0 ,
bx ,!
1-
bx -!
b1 .
bx .!
0/
b1 /!
00
bx 0!
11
bx 1!
02
b0 3
04
05
06
b0 7
08
b0 9
b0 :
b0 ;
b0 <
0=
b0 >
b0 ?
b0 @
b1001011000 A
b11111111111111111011000111100000 B
b11111111111111111011000111100001 C
b1 D
b1 E
b1001011000 F
b0 G
bx H
0I
0J
b11110100001001000000 K
0L
b1100 M
b100000 N
b1011 O
b1001011000 P
0Q
bx R
0S
bx T
xU
bx V
xW
1X
b1 Y
0Z
1[
0\
0]
b10 ^
b0 _
0`
b0 a
b0 b
b0 c
0d
b0 e
b0 f
1g
b0 h
0i
b0 j
b0 k
b0 l
0m
0n
0o
0p
b0 q
0r
0s
0t
0u
b111111111111 v
b0 w
0x
0y
b0 z
b0 {
0|
b0 }
b0 ~
$end
#5000
1#
b10000 $
1$!
1%
b0 %!
b1001011000 &
1'!
b0 (!
15
b0 ;
b0 @
b11110100001000111111 K
1Q
b10000 R
1S
b1001011000 T
1\
1g
b0 h
0x
0y
b0 z
#10000
0$!
0'!
05
0\
#15000
1$!
b0 %!
1'!
b0 (!
15
16
b1111 7
18
bx ;
b1111 <
1=
bx @
b11110100001000111110 K
1\
1]
b0 ^
b1111 _
1`
b0 a
b0 b
b1111 c
1d
b0 e
b0 f
b1 h
0i
b0 k
b0 l
0p
b0 q
0r
0x
0y
b0 z
#20000
0$!
0'!
05
0\
#25000
1$!
b0 %!
1'!
b0 (!
15
b100 :
b0 ;
b100 ?
b0 @
b11110100001000111101 K
1\
b0 ^
b1111 _
1`
b0 a
b100 b
b1111 c
1d
b0 e
b100 f
b10 h
0i
b0 k
b0 l
0p
b0 q
0r
#30000
0$!
0'!
05
0\
#35000
1$!
b100 %!
1'!
b100 (!
15
b1000 :
b0 ;
b1000 ?
b0 @
b11110100001000111100 K
1\
b0 ^
b1111 _
1`
b0 a
b1000 b
b1111 c
1d
b0 e
b1000 f
b11 h
0i
b0 k
b0 l
0p
b0 q
0r
#40000
0$!
0'!
05
0\
#45000
1$!
b1000 %!
1'!
b1000 (!
15
b1100 :
b0 ;
b1100 ?
b0 @
b11110100001000111011 K
1\
b0 ^
b1111 _
1`
b0 a
b1100 b
b1111 c
1d
b0 e
b1100 f
b100 h
0i
b0 k
b0 l
0p
b0 q
0r
#50000
0$!
0'!
05
0\
#55000
1$!
b1100 %!
1'!
b1100 (!
15
b10000 :
b0 ;
b10000 ?
b0 @
b11110100001000111010 K
1\
b0 ^
b1111 _
1`
b0 a
b10000 b
b1111 c
1d
b0 e
b10000 f
b101 h
0i
b0 k
b0 l
0p
b0 q
0r
#60000
0$!
0'!
05
0\
#65000
1$!
b10000 %!
1'!
b10000 (!
15
b10100 :
b0 ;
b10100 ?
b0 @
b11110100001000111001 K
1\
b0 ^
b1111 _
1`
b0 a
b10100 b
b1111 c
1d
b0 e
b10100 f
b110 h
0i
b0 k
b0 l
0p
b0 q
0r
#70000
0$!
0'!
05
0\
#75000
1$!
b10100 %!
1'!
b10100 (!
15
b11000 :
b0 ;
b11000 ?
b0 @
b11110100001000111000 K
1\
b0 ^
b1111 _
1`
b0 a
b11000 b
b1111 c
1d
b0 e
b11000 f
b111 h
0i
b0 k
b0 l
0p
b0 q
0r
#80000
0$!
0'!
05
0\
#85000
1$!
b11000 %!
1'!
b11000 (!
15
b11100 :
b0 ;
b11100 ?
b0 @
b11110100001000110111 K
1\
b0 ^
b1111 _
1`
b0 a
b11100 b
b1111 c
1d
b0 e
b11100 f
b1000 h
0i
b0 k
b0 l
0p
b0 q
0r
#90000
0$!
0'!
05
0\
#95000
1$!
b11100 %!
1'!
b11100 (!
15
b100000 :
b0 ;
b100000 ?
b0 @
b11110100001000110110 K
1\
b0 ^
b1111 _
1`
b0 a
b100000 b
b1111 c
1d
b0 e
b100000 f
b1001 h
0i
b0 k
b0 l
0p
b0 q
0r
#100000
0$!
0'!
05
0\
#105000
1$!
b100000 %!
1'!
b100000 (!
15
b100100 :
b0 ;
b100100 ?
b0 @
b11110100001000110101 K
1\
b0 ^
b1111 _
1`
b0 a
b100100 b
b1111 c
1d
b0 e
b100100 f
b1010 h
0i
b0 k
b0 l
0p
b0 q
0r
#110000
0$!
0'!
05
0\
#115000
1$!
b100100 %!
1'!
b100100 (!
15
b101000 :
b0 ;
b101000 ?
b0 @
b11110100001000110100 K
1\
b0 ^
b1111 _
1`
b0 a
b101000 b
b1111 c
1d
b0 e
b101000 f
b1011 h
0i
b0 k
b0 l
0p
b0 q
0r
#120000
0$!
0'!
05
0\
#125000
1$!
b101000 %!
1'!
b101000 (!
15
b101100 :
b0 ;
b101100 ?
b0 @
b11110100001000110011 K
1\
b0 ^
b1111 _
1`
b0 a
b101100 b
b1111 c
1d
b0 e
b101100 f
b1100 h
0i
b0 k
b0 l
0p
b0 q
0r
#130000
0$!
0'!
05
0\
#135000
1$!
b101100 %!
1'!
b101100 (!
15
b0 7
08
b0 :
b0 ;
b110000 ?
bx @
b11110100001000110010 K
1\
b0 ^
b1111 _
1`
b0 a
b110000 b
b0 c
0d
b0 e
b0 f
b1101 h
0i
b0 k
b0 l
0p
b0 q
0r
#140000
0$!
0'!
05
0\
#145000
1$!
b0 %!
1'!
b110000 (!
15
b0 ;
b0 <
0=
b0 ?
b0 @
b11110100001000110001 K
1\
b10 ^
b0 _
0`
b0 a
b0 b
b0 c
0d
b0 e
b0 f
0g
b1110 h
1i
b0 k
b0 l
0p
b0 q
0r
#150000
0$!
0'!
05
0\
#155000
1!
1"
1$!
b0 %!
1'!
b0 (!
15
b0 @
b11110100001000110000 K
1\
b0 h
1t
1u
0x
0y
b0 z
#160000
0$!
0'!
05
0\
#165000
0#
1$!
0%
b0 %!
1'!
b0 (!
b100000 *!
b0 +!
15
b0 H
b11110100001000101111 K
0Q
0S
1\
b0 h
1t
1u
0x
0y
b0 z
b1001011000 {
#170000
0$!
0'!
05
0\
#175000
0!
0"
1#
b100000 $
1$!
1%
b0 %!
b0 &
1'!
b0 (!
15
b11110100001000101110 K
1Q
b100000 R
1S
b0 T
1\
b0 h
0t
0u
0x
0y
b0 z
#180000
0$!
0'!
05
0\
#185000
1!
1"
1$!
b0 %!
1'!
b0 (!
15
b11110100001000101101 K
1\
b0 h
1t
1u
0x
0y
b0 z
#190000
0$!
0'!
05
0\
#195000
0#
1$!
0%
b0 %!
1'!
b0 (!
b100100 *!
b11111111111111111111111111110110 +!
15
b1111 7
18
b0 ;
b1 H
b11110100001000101100 K
0Q
0S
1\
b1111 c
1d
b0 e
b0 f
b0 h
1t
1u
0x
0y
b0 z
1|
#200000
0$!
0'!
05
0\
#205000
0!
0"
1#
b100100 $
1$!
1%
b0 %!
b11111111111111111111111111110110 &
1'!
b0 (!
15
b0 7
08
b0 ;
b11110100001000101011 K
1Q
b100100 R
1S
b11111111111111111111111111110110 T
1\
b0 c
0d
b0 e
b0 f
b0 h
0t
0u
0x
0y
b0 z
0|
#210000
0$!
0'!
05
0\
#215000
1!
1"
1$!
b0 %!
1'!
b0 (!
15
b11110100001000101010 K
1\
b0 h
1t
1u
0x
0y
b0 z
#220000
0$!
0'!
05
0\
#225000
0#
1$!
0%
b0 %!
1'!
b0 (!
b101000 *!
b11111111111111111111111111110111 +!
15
b1111 7
18
b11111111111111111111111111110110 9
b100 :
b0 ;
b10 H
b11110100001000101001 K
0Q
0S
1\
b1111 c
1d
b11111111111111111111111111110110 e
b100 f
b0 h
1t
1u
0x
0y
b0 z
1|
#230000
0$!
0'!
05
0\
#235000
0!
0"
1#
b101000 $
1$!
1%
b100 %!
b11111111111111111111111111110111 &
1'!
b0 (!
15
b0 7
08
b0 9
b0 :
b0 ;
b11110100001000101000 K
1Q
b101000 R
1S
b11111111111111111111111111110111 T
1\
b0 c
0d
b0 e
b0 f
b0 h
0t
0u
0x
0y
b0 z
0|
#240000
0$!
0'!
05
0\
#245000
1!
1"
1$!
b0 %!
1'!
b0 (!
15
b0 ;
b11110100001000100111 K
1\
b0 h
1t
1u
0x
0y
b0 z
#250000
0$!
0'!
05
0\
#255000
0#
1$!
0%
b0 %!
1'!
b0 (!
b101100 *!
b10111 +!
15
b1111 7
18
b11111111111111111111111111110111 9
b1000 :
b0 ;
b11 H
b11110100001000100110 K
0Q
0S
1\
b1111 c
1d
b11111111111111111111111111110111 e
b1000 f
b0 h
1t
1u
0x
0y
b0 z
1|
#260000
0$!
0'!
05
0\
#265000
0!
0"
1#
b101100 $
1$!
1%
b1000 %!
b10111 &
1'!
b0 (!
15
b0 7
08
b0 9
b0 :
b0 ;
b11110100001000100101 K
1Q
b101100 R
1S
b10111 T
1\
b0 c
0d
b0 e
b0 f
b0 h
0t
0u
0x
0y
b0 z
0|
#270000
0$!
0'!
05
0\
#275000
1!
1"
1$!
b0 %!
1'!
b0 (!
15
b0 ;
b11110100001000100100 K
1\
b0 h
1t
1u
0x
0y
b0 z
#280000
0$!
0'!
05
0\
#285000
0#
1$!
0%
b0 %!
1'!
b0 (!
b110000 *!
b111000 +!
15
b1111 7
18
b10111 9
b1100 :
b0 ;
b100 H
b11110100001000100011 K
0Q
0S
1\
b1111 c
1d
b10111 e
b1100 f
b0 h
1t
1u
0x
0y
b0 z
1|
#290000
0$!
0'!
05
0\
#295000
0!
0"
1#
b110000 $
1$!
1%
b1100 %!
b111000 &
1'!
b0 (!
15
b0 7
08
b0 9
b0 :
b0 ;
b11110100001000100010 K
1Q
b110000 R
1S
b111000 T
1\
b0 c
0d
b0 e
b0 f
b0 h
0t
0u
0x
0y
b0 z
0|
#300000
0$!
0'!
05
0\
#305000
1!
1"
1$!
b0 %!
1'!
b0 (!
15
b0 ;
b11110100001000100001 K
1\
b0 h
1t
1u
0x
0y
b0 z
#310000
0$!
0'!
05
0\
#315000
0#
1$!
0%
b0 %!
1'!
b0 (!
b110100 *!
b111111 +!
15
b1111 7
18
b111000 9
b10000 :
b0 ;
b101 H
b11110100001000100000 K
0Q
0S
1\
b1111 c
1d
b111000 e
b10000 f
b0 h
1t
1u
0x
0y
b0 z
1|
#320000
0$!
0'!
05
0\
#325000
0!
0"
1#
b110100 $
1$!
1%
b10000 %!
b111111 &
1'!
b0 (!
15
b0 7
08
b0 9
b0 :
b0 ;
b11110100001000011111 K
1Q
b110100 R
1S
b111111 T
1\
b0 c
0d
b0 e
b0 f
b0 h
0t
0u
0x
0y
b0 z
0|
#330000
0$!
0'!
05
0\
#335000
1!
1"
1$!
b0 %!
1'!
b0 (!
15
b0 ;
b11110100001000011110 K
1\
b0 h
1t
1u
0x
0y
b0 z
#340000
0$!
0'!
05
0\
#345000
0#
1$!
0%
b0 %!
1'!
b0 (!
b111000 *!
b111000 +!
15
b1111 7
18
b111111 9
b10100 :
b0 ;
b110 H
b11110100001000011101 K
0Q
0S
1\
b1111 c
1d
b111111 e
b10100 f
b0 h
1t
1u
0x
0y
b0 z
1|
#350000
0$!
0'!
05
0\
#355000
0!
0"
1#
b111000 $
1$!
1%
b10100 %!
b111000 &
1'!
b0 (!
15
b0 7
08
b0 9
b0 :
b0 ;
b11110100001000011100 K
1Q
b111000 R
1S
b111000 T
1\
b0 c
0d
b0 e
b0 f
b0 h
0t
0u
0x
0y
b0 z
0|
#360000
0$!
0'!
05
0\
#365000
1!
1"
1$!
b0 %!
1'!
b0 (!
15
b0 ;
b11110100001000011011 K
1\
b0 h
1t
1u
0x
0y
b0 z
#370000
0$!
0'!
05
0\
#375000
0#
1$!
0%
b0 %!
1'!
b0 (!
b111100 *!
b10111 +!
15
b1111 7
18
b111000 9
b11000 :
b0 ;
b111 H
b11110100001000011010 K
0Q
0S
1\
b1111 c
1d
b111000 e
b11000 f
b0 h
1t
1u
0x
0y
b0 z
1|
#380000
0$!
0'!
05
0\
#385000
0!
0"
1#
b111100 $
1$!
1%
b11000 %!
b10111 &
1'!
b0 (!
15
b0 7
08
b0 9
b0 :
b0 ;
b11110100001000011001 K
1Q
b111100 R
1S
b10111 T
1\
b0 c
0d
b0 e
b0 f
b0 h
0t
0u
0x
0y
b0 z
0|
#390000
0$!
0'!
05
0\
#395000
1!
1"
1$!
b0 %!
1'!
b0 (!
15
b0 ;
b11110100001000011000 K
1\
b0 h
1t
1u
0x
0y
b0 z
#400000
0$!
0'!
05
0\
#405000
0#
1$!
0%
b0 %!
1'!
b0 (!
b1000000 *!
b11111111111111111111111111110111 +!
15
b1111 7
18
b10111 9
b11100 :
b0 ;
b1000 H
b11110100001000010111 K
0Q
0S
1\
b1111 c
1d
b10111 e
b11100 f
b0 h
1t
1u
0x
0y
b0 z
1|
#410000
0$!
0'!
05
0\
#415000
0!
0"
1#
b1000000 $
1$!
1%
b11100 %!
b11111111111111111111111111110111 &
1'!
b0 (!
15
b0 7
08
b0 9
b0 :
b0 ;
b11110100001000010110 K
1Q
b1000000 R
1S
b11111111111111111111111111110111 T
1\
b0 c
0d
b0 e
b0 f
b0 h
0t
0u
0x
0y
b0 z
0|
#420000
0$!
0'!
05
0\
#425000
1!
1"
1$!
b0 %!
1'!
b0 (!
15
b0 ;
b11110100001000010101 K
1\
b0 h
1t
1u
0x
0y
b0 z
#430000
0$!
0'!
05
0\
#435000
0#
1$!
0%
b0 %!
1'!
b0 (!
b1000100 *!
b11111111111111111111111111110110 +!
15
b1111 7
18
b11111111111111111111111111110111 9
b100000 :
b0 ;
b1001 H
b11110100001000010100 K
0Q
0S
1\
b1111 c
1d
b11111111111111111111111111110111 e
b100000 f
b0 h
1t
1u
0x
0y
b0 z
1|
#440000
0$!
0'!
05
0\
#445000
0!
0"
1#
b1000100 $
1$!
1%
b100000 %!
b11111111111111111111111111110110 &
1'!
b0 (!
15
b0 7
08
b0 9
b0 :
b0 ;
b11110100001000010011 K
1Q
b1000100 R
1S
b11111111111111111111111111110110 T
1\
b0 c
0d
b0 e
b0 f
b0 h
0t
0u
0x
0y
b0 z
0|
#450000
0$!
0'!
05
0\
#455000
1!
1"
1$!
b0 %!
1'!
b0 (!
15
b0 ;
b11110100001000010010 K
1\
b0 h
1t
1u
0x
0y
b0 z
#460000
0$!
0'!
05
0\
#465000
0#
1$!
0%
b0 %!
1'!
b0 (!
b1001000 *!
b0 +!
15
b1111 7
18
b11111111111111111111111111110110 9
b100100 :
b0 ;
b1010 H
b11110100001000010001 K
0Q
0S
1\
b1111 c
1d
b11111111111111111111111111110110 e
b100100 f
b0 h
1t
1u
0x
0y
b0 z
1|
#470000
0$!
0'!
05
0\
#475000
0!
0"
1#
b1001000 $
1$!
1%
b100100 %!
b0 &
1'!
b0 (!
15
b0 7
08
b0 9
b0 :
b0 ;
b11110100001000010000 K
1Q
b1001000 R
1S
b0 T
1\
b0 c
0d
b0 e
b0 f
b0 h
0t
0u
0x
0y
b0 z
0|
#480000
0$!
0'!
05
0\
#485000
1!
1"
1$!
b0 %!
1'!
b0 (!
15
b0 ;
b11110100001000001111 K
1\
b0 h
1t
1u
0x
0y
b0 z
#490000
0$!
0'!
05
0\
#495000
0#
1$!
0%
b0 %!
1'!
b0 (!
0)
b100000 ,!
b0 -!
b11111111111111111111111111111111 .!
15
b1111 7
18
b101000 :
b0 ;
b0 H
b11110100001000001110 K
0Q
0S
0U
1\
b1111 c
1d
b0 e
b101000 f
b0 h
1t
1u
0x
0y
b0 z
1|
#500000
0$!
0'!
05
0\
#505000
0!
0"
1$!
b101000 %!
1'!
1(
b0 (!
1)
b100000 *
15
b0 7
08
b0 :
b0 ;
b11110100001000001101 K
1U
b100000 V
1W
1\
b0 c
0d
b0 e
b0 f
b0 h
0t
0u
0x
0y
b0 z
0|
#510000
0$!
0'!
05
0\
#515000
1$!
b0 %!
1'
1'!
b0 (!
15
b0 ;
b11110100001000001100 K
1\
b0 h
0t
0u
1x
0y
b0 z
b1 }
b100000 ~
#520000
0$!
0'!
05
0\
#525000
1$!
b0 %!
0'
1'!
b0 (!
15
18
b0 ;
b11110100001000001011 K
1\
1d
b0 f
b0 h
0t
0u
0x
0y
b0 z
b10 }
#530000
0$!
0'!
05
0\
#535000
1$!
b0 %!
1'!
b0 (!
15
b11110100001000001010 K
1\
b0 h
0t
0u
0x
0y
b0 z
b11 }
#540000
0$!
0'!
05
0\
#545000
1$!
b0 %!
1'!
b0 (!
1+
15
08
b0 ;
b11110100001000001001 K
1\
0d
b0 f
b0 h
0t
0u
0x
1y
b0 z
b100 }
#550000
0$!
0'!
05
0\
#555000
1$!
b0 %!
1'!
b0 (!
0)
0+
b100100 ,!
b11111111111111111111111111110110 -!
b11111111111111111111111111111111 .!
15
b1 H
b11110100001000001000 K
0U
1\
b0 h
0t
0u
0x
0y
b0 z
b0 }
#560000
0$!
0'!
05
0\
#565000
1$!
b0 %!
1'!
1(
b0 (!
1)
b100100 *
15
b11110100001000000111 K
1U
b100100 V
1\
b0 h
0t
0u
0x
0y
b0 z
#570000
0$!
0'!
05
0\
#575000
1$!
b0 %!
1'
1'!
b0 (!
15
b11110100001000000110 K
1\
b0 h
0t
0u
1x
0y
b0 z
b1 }
b100100 ~
#580000
0$!
0'!
05
0\
#585000
1$!
b0 %!
0'
1'!
b0 (!
15
18
b100 :
b0 ;
b11110100001000000101 K
1\
1d
b100 f
b0 h
0t
0u
0x
0y
b0 z
b10 }
#590000
0$!
0'!
05
0\
#595000
1$!
b100 %!
1'!
b0 (!
15
b11111111111111111111111111110110 ;
b11110100001000000100 K
1\
b0 h
0t
0u
0x
0y
b0 z
b11 }
#600000
0$!
0'!
05
0\
#605000
1$!
b100 %!
1'!
b0 (!
1+
b11111111111111111111111111110110 ,
15
08
b0 :
b0 ;
b11110100001000000011 K
1\
0d
b0 f
b0 h
0t
0u
0x
1y
b11111111111111111111111111110110 z
b100 }
#610000
0$!
0'!
05
0\
#615000
1$!
b0 %!
1'!
b0 (!
0)
0+
b0 ,
b101000 ,!
b11111111111111111111111111110111 -!
b11111111111111111111111111111111 .!
15
b0 ;
b10 H
b11110100001000000010 K
0U
1\
b0 h
0t
0u
0x
0y
b0 z
b0 }
#620000
0$!
0'!
05
0\
#625000
1$!
b0 %!
1'!
1(
b0 (!
1)
b101000 *
15
b11110100001000000001 K
1U
b101000 V
1\
b0 h
0t
0u
0x
0y
b0 z
#630000
0$!
0'!
05
0\
#635000
1$!
b0 %!
1'
1'!
b0 (!
15
b11110100001000000000 K
1\
b0 h
0t
0u
1x
0y
b0 z
b1 }
b101000 ~
#640000
0$!
0'!
05
0\
#645000
1$!
b0 %!
0'
1'!
b0 (!
15
18
b1000 :
b0 ;
b11110100000111111111 K
1\
1d
b1000 f
b0 h
0t
0u
0x
0y
b0 z
b10 }
#650000
0$!
0'!
05
0\
#655000
1$!
b1000 %!
1'!
b0 (!
15
b11111111111111111111111111110111 ;
b11110100000111111110 K
1\
b0 h
0t
0u
0x
0y
b0 z
b11 }
#660000
0$!
0'!
05
0\
#665000
1$!
b1000 %!
1'!
b0 (!
1+
b11111111111111111111111111110111 ,
15
08
b0 :
b0 ;
b11110100000111111101 K
1\
0d
b0 f
b0 h
0t
0u
0x
1y
b11111111111111111111111111110111 z
b100 }
#670000
0$!
0'!
05
0\
#675000
1$!
b0 %!
1'!
b0 (!
0)
0+
b0 ,
b101100 ,!
b10111 -!
b11111111111111111111111111111111 .!
15
b0 ;
b11 H
b11110100000111111100 K
0U
1\
b0 h
0t
0u
0x
0y
b0 z
b0 }
#680000
0$!
0'!
05
0\
#685000
1$!
b0 %!
1'!
1(
b0 (!
1)
b101100 *
15
b11110100000111111011 K
1U
b101100 V
1\
b0 h
0t
0u
0x
0y
b0 z
#690000
0$!
0'!
05
0\
#695000
1$!
b0 %!
1'
1'!
b0 (!
15
b11110100000111111010 K
1\
b0 h
0t
0u
1x
0y
b0 z
b1 }
b101100 ~
#700000
0$!
0'!
05
0\
#705000
1$!
b0 %!
0'
1'!
b0 (!
15
18
b1100 :
b0 ;
b11110100000111111001 K
1\
1d
b1100 f
b0 h
0t
0u
0x
0y
b0 z
b10 }
#710000
0$!
0'!
05
0\
#715000
1$!
b1100 %!
1'!
b0 (!
15
b10111 ;
b11110100000111111000 K
1\
b0 h
0t
0u
0x
0y
b0 z
b11 }
#720000
0$!
0'!
05
0\
#725000
1$!
b1100 %!
1'!
b0 (!
1+
b10111 ,
15
08
b0 :
b0 ;
b11110100000111110111 K
1\
0d
b0 f
b0 h
0t
0u
0x
1y
b10111 z
b100 }
#730000
0$!
0'!
05
0\
#735000
1$!
b0 %!
1'!
b0 (!
0)
0+
b0 ,
b110000 ,!
b111000 -!
b11111111111111111111111111111111 .!
15
b0 ;
b100 H
b11110100000111110110 K
0U
1\
b0 h
0t
0u
0x
0y
b0 z
b0 }
#740000
0$!
0'!
05
0\
#745000
1$!
b0 %!
1'!
1(
b0 (!
1)
b110000 *
15
b11110100000111110101 K
1U
b110000 V
1\
b0 h
0t
0u
0x
0y
b0 z
#750000
0$!
0'!
05
0\
#755000
1$!
b0 %!
1'
1'!
b0 (!
15
b11110100000111110100 K
1\
b0 h
0t
0u
1x
0y
b0 z
b1 }
b110000 ~
#760000
0$!
0'!
05
0\
#765000
1$!
b0 %!
0'
1'!
b0 (!
15
18
b10000 :
b0 ;
b11110100000111110011 K
1\
1d
b10000 f
b0 h
0t
0u
0x
0y
b0 z
b10 }
#770000
0$!
0'!
05
0\
#775000
1$!
b10000 %!
1'!
b0 (!
15
b111000 ;
b11110100000111110010 K
1\
b0 h
0t
0u
0x
0y
b0 z
b11 }
#780000
0$!
0'!
05
0\
#785000
1$!
b10000 %!
1'!
b0 (!
1+
b111000 ,
15
08
b0 :
b0 ;
b11110100000111110001 K
1\
0d
b0 f
b0 h
0t
0u
0x
1y
b111000 z
b100 }
#790000
0$!
0'!
05
0\
#795000
1$!
b0 %!
1'!
b0 (!
0)
0+
b0 ,
b110100 ,!
b111111 -!
b11111111111111111111111111111111 .!
15
b0 ;
b101 H
b11110100000111110000 K
0U
1\
b0 h
0t
0u
0x
0y
b0 z
b0 }
#800000
0$!
0'!
05
0\
#805000
1$!
b0 %!
1'!
1(
b0 (!
1)
b110100 *
15
b11110100000111101111 K
1U
b110100 V
1\
b0 h
0t
0u
0x
0y
b0 z
#810000
0$!
0'!
05
0\
#815000
1$!
b0 %!
1'
1'!
b0 (!
15
b11110100000111101110 K
1\
b0 h
0t
0u
1x
0y
b0 z
b1 }
b110100 ~
#820000
0$!
0'!
05
0\
#825000
1$!
b0 %!
0'
1'!
b0 (!
15
18
b10100 :
b0 ;
b11110100000111101101 K
1\
1d
b10100 f
b0 h
0t
0u
0x
0y
b0 z
b10 }
#830000
0$!
0'!
05
0\
#835000
1$!
b10100 %!
1'!
b0 (!
15
b111111 ;
b11110100000111101100 K
1\
b0 h
0t
0u
0x
0y
b0 z
b11 }
#840000
0$!
0'!
05
0\
#845000
1$!
b10100 %!
1'!
b0 (!
1+
b111111 ,
15
08
b0 :
b0 ;
b11110100000111101011 K
1\
0d
b0 f
b0 h
0t
0u
0x
1y
b111111 z
b100 }
#850000
0$!
0'!
05
0\
#855000
1$!
b0 %!
1'!
b0 (!
0)
0+
b0 ,
b111000 ,!
b111000 -!
b11111111111111111111111111111111 .!
15
b0 ;
b110 H
b11110100000111101010 K
0U
1\
b0 h
0t
0u
0x
0y
b0 z
b0 }
#860000
0$!
0'!
05
0\
#865000
1$!
b0 %!
1'!
1(
b0 (!
1)
b111000 *
15
b11110100000111101001 K
1U
b111000 V
1\
b0 h
0t
0u
0x
0y
b0 z
#870000
0$!
0'!
05
0\
